task4/counter.vcd
$version Generated by VerilatedVcd $end
$date Thu Oct 23 09:17:49 2025 $end
$timescale 1ps $end

 $scope module TOP $end
  $var wire 12 + bcd [11:0] $end
  $var wire  1 ' clk $end
  $var wire  1 ) en $end
  $var wire  1 ( rst $end
  $var wire  8 * v [7:0] $end
  $scope module top $end
   $var wire 32 , WIDTH [31:0] $end
   $var wire 12 + bcd [11:0] $end
   $var wire  1 ' clk $end
   $var wire  8 # count [7:0] $end
   $var wire  1 ) en $end
   $var wire  1 ( rst $end
   $var wire  8 * v [7:0] $end
   $scope module myCounter $end
    $var wire 32 - WIDTH [31:0] $end
    $var wire  1 ' clk $end
    $var wire 64 $ count [63:0] $end
    $var wire  1 ) en $end
    $var wire  1 ( rst $end
   $upscope $end
   $scope module myDecoder $end
    $var wire 12 + BCD [11:0] $end
    $var wire 32 . i [31:0] $end
    $var wire 20 & result [19:0] $end
    $var wire  8 # x [7:0] $end
   $upscope $end
  $upscope $end
 $upscope $end
$enddefinitions $end


#0
b00000000 #
b0000000000000000000000000000000000000000000000000000000000000000 $
b00000000000000000000 &
1'
1(
0)
b00000000 *
b000000000000 +
b00000000000000000000000000001000 ,
b00000000000000000000000001000000 -
b00000000000000000000000000001000 .
#1
0'
#2
1'
#3
0'
#4
1'
#5
0'
#6
1'
0(
#7
0'
#8
b11111111 #
b1111111111111111111111111111111111111111111111111111111111111111 $
b00100101010100000000 &
1'
b001001010101 +
#9
0'
#10
b11111110 #
b1111111111111111111111111111111111111111111111111111111111111110 $
b00100101010000000000 &
1'
b001001010100 +
#11
0'
#12
b11111101 #
b1111111111111111111111111111111111111111111111111111111111111101 $
b00100101001100000000 &
1'
b001001010011 +
#13
0'
#14
b11111100 #
b1111111111111111111111111111111111111111111111111111111111111100 $
b00100101001000000000 &
1'
b001001010010 +
#15
0'
#16
b11111011 #
b1111111111111111111111111111111111111111111111111111111111111011 $
b00100101000100000000 &
1'
b001001010001 +
#17
0'
#18
b11111010 #
b1111111111111111111111111111111111111111111111111111111111111010 $
b00100101000000000000 &
1'
b001001010000 +
#19
0'
#20
b11111001 #
b1111111111111111111111111111111111111111111111111111111111111001 $
b00100100100100000000 &
1'
b001001001001 +
#21
0'
#22
b11111000 #
b1111111111111111111111111111111111111111111111111111111111111000 $
b00100100100000000000 &
1'
b001001001000 +
#23
0'
#24
b11110111 #
b1111111111111111111111111111111111111111111111111111111111110111 $
b00100100011100000000 &
1'
b001001000111 +
#25
0'
#26
b11110110 #
b1111111111111111111111111111111111111111111111111111111111110110 $
b00100100011000000000 &
1'
b001001000110 +
#27
0'
#28
b11110101 #
b1111111111111111111111111111111111111111111111111111111111110101 $
b00100100010100000000 &
1'
b001001000101 +
#29
0'
#30
b11110100 #
b1111111111111111111111111111111111111111111111111111111111110100 $
b00100100010000000000 &
1'
b001001000100 +
#31
0'
#32
b11110011 #
b1111111111111111111111111111111111111111111111111111111111110011 $
b00100100001100000000 &
1'
1(
b001001000011 +
#33
0'
#34
b00000000 #
b0000000000000000000000000000000000000000000000000000000000000000 $
b00000000000000000000 &
1'
0(
b000000000000 +
#35
0'
#36
b11111111 #
b1111111111111111111111111111111111111111111111111111111111111111 $
b00100101010100000000 &
1'
b001001010101 +
#37
0'
#38
b11111110 #
b1111111111111111111111111111111111111111111111111111111111111110 $
b00100101010000000000 &
1'
b001001010100 +
#39
0'
#40
b11111101 #
b1111111111111111111111111111111111111111111111111111111111111101 $
b00100101001100000000 &
1'
b001001010011 +
#41
0'
#42
b11111100 #
b1111111111111111111111111111111111111111111111111111111111111100 $
b00100101001000000000 &
1'
b001001010010 +
#43
0'
#44
b11111011 #
b1111111111111111111111111111111111111111111111111111111111111011 $
b00100101000100000000 &
1'
b001001010001 +
#45
0'
#46
b11111010 #
b1111111111111111111111111111111111111111111111111111111111111010 $
b00100101000000000000 &
1'
b001001010000 +
#47
0'
#48
b11111001 #
b1111111111111111111111111111111111111111111111111111111111111001 $
b00100100100100000000 &
1'
b001001001001 +
#49
0'
#50
b11111000 #
b1111111111111111111111111111111111111111111111111111111111111000 $
b00100100100000000000 &
1'
b001001001000 +
#51
0'
#52
b11110111 #
b1111111111111111111111111111111111111111111111111111111111110111 $
b00100100011100000000 &
1'
b001001000111 +
#53
0'
#54
b11110110 #
b1111111111111111111111111111111111111111111111111111111111110110 $
b00100100011000000000 &
1'
b001001000110 +
#55
0'
#56
b11110101 #
b1111111111111111111111111111111111111111111111111111111111110101 $
b00100100010100000000 &
1'
b001001000101 +
#57
0'
#58
b11110100 #
b1111111111111111111111111111111111111111111111111111111111110100 $
b00100100010000000000 &
1'
b001001000100 +
#59
0'
#60
b11110011 #
b1111111111111111111111111111111111111111111111111111111111110011 $
b00100100001100000000 &
1'
b001001000011 +
#61
0'
#62
b11110010 #
b1111111111111111111111111111111111111111111111111111111111110010 $
b00100100001000000000 &
1'
b001001000010 +
#63
0'
#64
b11110001 #
b1111111111111111111111111111111111111111111111111111111111110001 $
b00100100000100000000 &
1'
b001001000001 +
#65
0'
#66
b11110000 #
b1111111111111111111111111111111111111111111111111111111111110000 $
b00100100000000000000 &
1'
b001001000000 +
#67
0'
#68
b11101111 #
b1111111111111111111111111111111111111111111111111111111111101111 $
b00100011100100000000 &
1'
b001000111001 +
#69
0'
#70
b11101110 #
b1111111111111111111111111111111111111111111111111111111111101110 $
b00100011100000000000 &
1'
b001000111000 +
#71
0'
#72
b11101101 #
b1111111111111111111111111111111111111111111111111111111111101101 $
b00100011011100000000 &
1'
b001000110111 +
#73
0'
#74
b11101100 #
b1111111111111111111111111111111111111111111111111111111111101100 $
b00100011011000000000 &
1'
b001000110110 +
#75
0'
#76
b11101011 #
b1111111111111111111111111111111111111111111111111111111111101011 $
b00100011010100000000 &
1'
b001000110101 +
#77
0'
#78
b11101010 #
b1111111111111111111111111111111111111111111111111111111111101010 $
b00100011010000000000 &
1'
b001000110100 +
#79
0'
#80
b11101001 #
b1111111111111111111111111111111111111111111111111111111111101001 $
b00100011001100000000 &
1'
b001000110011 +
#81
0'
#82
b11101000 #
b1111111111111111111111111111111111111111111111111111111111101000 $
b00100011001000000000 &
1'
b001000110010 +
#83
0'
#84
b11100111 #
b1111111111111111111111111111111111111111111111111111111111100111 $
b00100011000100000000 &
1'
b001000110001 +
#85
0'
#86
b11100110 #
b1111111111111111111111111111111111111111111111111111111111100110 $
b00100011000000000000 &
1'
b001000110000 +
#87
0'
#88
b11100101 #
b1111111111111111111111111111111111111111111111111111111111100101 $
b00100010100100000000 &
1'
b001000101001 +
#89
0'
#90
b11100100 #
b1111111111111111111111111111111111111111111111111111111111100100 $
b00100010100000000000 &
1'
b001000101000 +
#91
0'
#92
b11100011 #
b1111111111111111111111111111111111111111111111111111111111100011 $
b00100010011100000000 &
1'
b001000100111 +
#93
0'
#94
b11100010 #
b1111111111111111111111111111111111111111111111111111111111100010 $
b00100010011000000000 &
1'
b001000100110 +
#95
0'
#96
b11100001 #
b1111111111111111111111111111111111111111111111111111111111100001 $
b00100010010100000000 &
1'
b001000100101 +
#97
0'
#98
b11100000 #
b1111111111111111111111111111111111111111111111111111111111100000 $
b00100010010000000000 &
1'
b001000100100 +
#99
0'
#100
b11011111 #
b1111111111111111111111111111111111111111111111111111111111011111 $
b00100010001100000000 &
1'
b001000100011 +
#101
0'
#102
b11011110 #
b1111111111111111111111111111111111111111111111111111111111011110 $
b00100010001000000000 &
1'
b001000100010 +
#103
0'
#104
b11011101 #
b1111111111111111111111111111111111111111111111111111111111011101 $
b00100010000100000000 &
1'
b001000100001 +
#105
0'
#106
b11011100 #
b1111111111111111111111111111111111111111111111111111111111011100 $
b00100010000000000000 &
1'
b001000100000 +
#107
0'
#108
b11011011 #
b1111111111111111111111111111111111111111111111111111111111011011 $
b00100001100100000000 &
1'
b001000011001 +
#109
0'
#110
b11011010 #
b1111111111111111111111111111111111111111111111111111111111011010 $
b00100001100000000000 &
1'
b001000011000 +
#111
0'
#112
b11011001 #
b1111111111111111111111111111111111111111111111111111111111011001 $
b00100001011100000000 &
1'
b001000010111 +
#113
0'
#114
b11011000 #
b1111111111111111111111111111111111111111111111111111111111011000 $
b00100001011000000000 &
1'
b001000010110 +
#115
0'
#116
b11010111 #
b1111111111111111111111111111111111111111111111111111111111010111 $
b00100001010100000000 &
1'
b001000010101 +
#117
0'
#118
b11010110 #
b1111111111111111111111111111111111111111111111111111111111010110 $
b00100001010000000000 &
1'
b001000010100 +
#119
0'
#120
b11010101 #
b1111111111111111111111111111111111111111111111111111111111010101 $
b00100001001100000000 &
1'
b001000010011 +
#121
0'
#122
b11010100 #
b1111111111111111111111111111111111111111111111111111111111010100 $
b00100001001000000000 &
1'
b001000010010 +
#123
0'
#124
b11010011 #
b1111111111111111111111111111111111111111111111111111111111010011 $
b00100001000100000000 &
1'
b001000010001 +
#125
0'
#126
b11010010 #
b1111111111111111111111111111111111111111111111111111111111010010 $
b00100001000000000000 &
1'
b001000010000 +
#127
0'
#128
b11010001 #
b1111111111111111111111111111111111111111111111111111111111010001 $
b00100000100100000000 &
1'
b001000001001 +
#129
0'
#130
b11010000 #
b1111111111111111111111111111111111111111111111111111111111010000 $
b00100000100000000000 &
1'
b001000001000 +
#131
0'
#132
b11001111 #
b1111111111111111111111111111111111111111111111111111111111001111 $
b00100000011100000000 &
1'
b001000000111 +
#133
0'
#134
b11001110 #
b1111111111111111111111111111111111111111111111111111111111001110 $
b00100000011000000000 &
1'
b001000000110 +
#135
0'
#136
b11001101 #
b1111111111111111111111111111111111111111111111111111111111001101 $
b00100000010100000000 &
1'
b001000000101 +
#137
0'
#138
b11001100 #
b1111111111111111111111111111111111111111111111111111111111001100 $
b00100000010000000000 &
1'
b001000000100 +
#139
0'
#140
b11001011 #
b1111111111111111111111111111111111111111111111111111111111001011 $
b00100000001100000000 &
1'
b001000000011 +
#141
0'
#142
b11001010 #
b1111111111111111111111111111111111111111111111111111111111001010 $
b00100000001000000000 &
1'
b001000000010 +
#143
0'
#144
b11001001 #
b1111111111111111111111111111111111111111111111111111111111001001 $
b00100000000100000000 &
1'
b001000000001 +
#145
0'
#146
b11001000 #
b1111111111111111111111111111111111111111111111111111111111001000 $
b00100000000000000000 &
1'
b001000000000 +
#147
0'
#148
b11000111 #
b1111111111111111111111111111111111111111111111111111111111000111 $
b00011001100100000000 &
1'
b000110011001 +
#149
0'
#150
b11000110 #
b1111111111111111111111111111111111111111111111111111111111000110 $
b00011001100000000000 &
1'
b000110011000 +
#151
0'
#152
b11000101 #
b1111111111111111111111111111111111111111111111111111111111000101 $
b00011001011100000000 &
1'
b000110010111 +
#153
0'
#154
b11000100 #
b1111111111111111111111111111111111111111111111111111111111000100 $
b00011001011000000000 &
1'
b000110010110 +
#155
0'
#156
b11000011 #
b1111111111111111111111111111111111111111111111111111111111000011 $
b00011001010100000000 &
1'
b000110010101 +
#157
0'
#158
b11000010 #
b1111111111111111111111111111111111111111111111111111111111000010 $
b00011001010000000000 &
1'
b000110010100 +
#159
0'
#160
b11000001 #
b1111111111111111111111111111111111111111111111111111111111000001 $
b00011001001100000000 &
1'
b000110010011 +
#161
0'
#162
b11000000 #
b1111111111111111111111111111111111111111111111111111111111000000 $
b00011001001000000000 &
1'
b000110010010 +
#163
0'
#164
b10111111 #
b1111111111111111111111111111111111111111111111111111111110111111 $
b00011001000100000000 &
1'
b000110010001 +
#165
0'
#166
b10111110 #
b1111111111111111111111111111111111111111111111111111111110111110 $
b00011001000000000000 &
1'
b000110010000 +
#167
0'
#168
b10111101 #
b1111111111111111111111111111111111111111111111111111111110111101 $
b00011000100100000000 &
1'
b000110001001 +
#169
0'
#170
b10111100 #
b1111111111111111111111111111111111111111111111111111111110111100 $
b00011000100000000000 &
1'
b000110001000 +
#171
0'
#172
b10111011 #
b1111111111111111111111111111111111111111111111111111111110111011 $
b00011000011100000000 &
1'
b000110000111 +
#173
0'
#174
b10111010 #
b1111111111111111111111111111111111111111111111111111111110111010 $
b00011000011000000000 &
1'
b000110000110 +
#175
0'
#176
b10111001 #
b1111111111111111111111111111111111111111111111111111111110111001 $
b00011000010100000000 &
1'
b000110000101 +
#177
0'
#178
b10111000 #
b1111111111111111111111111111111111111111111111111111111110111000 $
b00011000010000000000 &
1'
b000110000100 +
#179
0'
#180
b10110111 #
b1111111111111111111111111111111111111111111111111111111110110111 $
b00011000001100000000 &
1'
b000110000011 +
#181
0'
#182
b10110110 #
b1111111111111111111111111111111111111111111111111111111110110110 $
b00011000001000000000 &
1'
b000110000010 +
#183
0'
#184
b10110101 #
b1111111111111111111111111111111111111111111111111111111110110101 $
b00011000000100000000 &
1'
b000110000001 +
#185
0'
#186
b10110100 #
b1111111111111111111111111111111111111111111111111111111110110100 $
b00011000000000000000 &
1'
b000110000000 +
#187
0'
#188
b10110011 #
b1111111111111111111111111111111111111111111111111111111110110011 $
b00010111100100000000 &
1'
b000101111001 +
#189
0'
#190
b10110010 #
b1111111111111111111111111111111111111111111111111111111110110010 $
b00010111100000000000 &
1'
b000101111000 +
#191
0'
#192
b10110001 #
b1111111111111111111111111111111111111111111111111111111110110001 $
b00010111011100000000 &
1'
b000101110111 +
#193
0'
#194
b10110000 #
b1111111111111111111111111111111111111111111111111111111110110000 $
b00010111011000000000 &
1'
b000101110110 +
#195
0'
#196
b10101111 #
b1111111111111111111111111111111111111111111111111111111110101111 $
b00010111010100000000 &
1'
b000101110101 +
#197
0'
#198
b10101110 #
b1111111111111111111111111111111111111111111111111111111110101110 $
b00010111010000000000 &
1'
b000101110100 +
#199
0'
#200
b10101101 #
b1111111111111111111111111111111111111111111111111111111110101101 $
b00010111001100000000 &
1'
b000101110011 +
#201
0'
#202
b10101100 #
b1111111111111111111111111111111111111111111111111111111110101100 $
b00010111001000000000 &
1'
b000101110010 +
#203
0'
#204
b10101011 #
b1111111111111111111111111111111111111111111111111111111110101011 $
b00010111000100000000 &
1'
b000101110001 +
#205
0'
#206
b10101010 #
b1111111111111111111111111111111111111111111111111111111110101010 $
b00010111000000000000 &
1'
b000101110000 +
#207
0'
#208
b10101001 #
b1111111111111111111111111111111111111111111111111111111110101001 $
b00010110100100000000 &
1'
b000101101001 +
#209
0'
#210
b10101000 #
b1111111111111111111111111111111111111111111111111111111110101000 $
b00010110100000000000 &
1'
b000101101000 +
#211
0'
#212
b10100111 #
b1111111111111111111111111111111111111111111111111111111110100111 $
b00010110011100000000 &
1'
b000101100111 +
#213
0'
#214
b10100110 #
b1111111111111111111111111111111111111111111111111111111110100110 $
b00010110011000000000 &
1'
b000101100110 +
#215
0'
#216
b10100101 #
b1111111111111111111111111111111111111111111111111111111110100101 $
b00010110010100000000 &
1'
b000101100101 +
#217
0'
#218
b10100100 #
b1111111111111111111111111111111111111111111111111111111110100100 $
b00010110010000000000 &
1'
b000101100100 +
#219
0'
#220
b10100011 #
b1111111111111111111111111111111111111111111111111111111110100011 $
b00010110001100000000 &
1'
b000101100011 +
#221
0'
#222
b10100010 #
b1111111111111111111111111111111111111111111111111111111110100010 $
b00010110001000000000 &
1'
b000101100010 +
#223
0'
#224
b10100001 #
b1111111111111111111111111111111111111111111111111111111110100001 $
b00010110000100000000 &
1'
b000101100001 +
#225
0'
#226
b10100000 #
b1111111111111111111111111111111111111111111111111111111110100000 $
b00010110000000000000 &
1'
b000101100000 +
#227
0'
#228
b10011111 #
b1111111111111111111111111111111111111111111111111111111110011111 $
b00010101100100000000 &
1'
b000101011001 +
#229
0'
#230
b10011110 #
b1111111111111111111111111111111111111111111111111111111110011110 $
b00010101100000000000 &
1'
b000101011000 +
#231
0'
#232
b10011101 #
b1111111111111111111111111111111111111111111111111111111110011101 $
b00010101011100000000 &
1'
b000101010111 +
#233
0'
#234
b10011100 #
b1111111111111111111111111111111111111111111111111111111110011100 $
b00010101011000000000 &
1'
b000101010110 +
#235
0'
#236
b10011011 #
b1111111111111111111111111111111111111111111111111111111110011011 $
b00010101010100000000 &
1'
b000101010101 +
#237
0'
#238
b10011010 #
b1111111111111111111111111111111111111111111111111111111110011010 $
b00010101010000000000 &
1'
b000101010100 +
#239
0'
#240
b10011001 #
b1111111111111111111111111111111111111111111111111111111110011001 $
b00010101001100000000 &
1'
b000101010011 +
#241
0'
#242
b10011000 #
b1111111111111111111111111111111111111111111111111111111110011000 $
b00010101001000000000 &
1'
b000101010010 +
#243
0'
#244
b10010111 #
b1111111111111111111111111111111111111111111111111111111110010111 $
b00010101000100000000 &
1'
b000101010001 +
#245
0'
#246
b10010110 #
b1111111111111111111111111111111111111111111111111111111110010110 $
b00010101000000000000 &
1'
b000101010000 +
#247
0'
#248
b10010101 #
b1111111111111111111111111111111111111111111111111111111110010101 $
b00010100100100000000 &
1'
b000101001001 +
#249
0'
#250
b10010100 #
b1111111111111111111111111111111111111111111111111111111110010100 $
b00010100100000000000 &
1'
b000101001000 +
#251
0'
#252
b10010011 #
b1111111111111111111111111111111111111111111111111111111110010011 $
b00010100011100000000 &
1'
b000101000111 +
#253
0'
#254
b10010010 #
b1111111111111111111111111111111111111111111111111111111110010010 $
b00010100011000000000 &
1'
b000101000110 +
#255
0'
#256
b10010001 #
b1111111111111111111111111111111111111111111111111111111110010001 $
b00010100010100000000 &
1'
b000101000101 +
#257
0'
#258
b10010000 #
b1111111111111111111111111111111111111111111111111111111110010000 $
b00010100010000000000 &
1'
b000101000100 +
#259
0'
#260
b10001111 #
b1111111111111111111111111111111111111111111111111111111110001111 $
b00010100001100000000 &
1'
b000101000011 +
#261
0'
#262
b10001110 #
b1111111111111111111111111111111111111111111111111111111110001110 $
b00010100001000000000 &
1'
b000101000010 +
#263
0'
#264
b10001101 #
b1111111111111111111111111111111111111111111111111111111110001101 $
b00010100000100000000 &
1'
b000101000001 +
#265
0'
#266
b10001100 #
b1111111111111111111111111111111111111111111111111111111110001100 $
b00010100000000000000 &
1'
b000101000000 +
#267
0'
#268
b10001011 #
b1111111111111111111111111111111111111111111111111111111110001011 $
b00010011100100000000 &
1'
b000100111001 +
#269
0'
#270
b10001010 #
b1111111111111111111111111111111111111111111111111111111110001010 $
b00010011100000000000 &
1'
b000100111000 +
#271
0'
#272
b10001001 #
b1111111111111111111111111111111111111111111111111111111110001001 $
b00010011011100000000 &
1'
b000100110111 +
#273
0'
#274
b10001000 #
b1111111111111111111111111111111111111111111111111111111110001000 $
b00010011011000000000 &
1'
b000100110110 +
#275
0'
#276
b10000111 #
b1111111111111111111111111111111111111111111111111111111110000111 $
b00010011010100000000 &
1'
b000100110101 +
#277
0'
#278
b10000110 #
b1111111111111111111111111111111111111111111111111111111110000110 $
b00010011010000000000 &
1'
b000100110100 +
#279
0'
#280
b10000101 #
b1111111111111111111111111111111111111111111111111111111110000101 $
b00010011001100000000 &
1'
b000100110011 +
#281
0'
#282
b10000100 #
b1111111111111111111111111111111111111111111111111111111110000100 $
b00010011001000000000 &
1'
b000100110010 +
#283
0'
#284
b10000011 #
b1111111111111111111111111111111111111111111111111111111110000011 $
b00010011000100000000 &
1'
b000100110001 +
#285
0'
#286
b10000010 #
b1111111111111111111111111111111111111111111111111111111110000010 $
b00010011000000000000 &
1'
b000100110000 +
#287
0'
#288
b10000001 #
b1111111111111111111111111111111111111111111111111111111110000001 $
b00010010100100000000 &
1'
b000100101001 +
#289
0'
#290
b10000000 #
b1111111111111111111111111111111111111111111111111111111110000000 $
b00010010100000000000 &
1'
b000100101000 +
#291
0'
#292
b01111111 #
b1111111111111111111111111111111111111111111111111111111101111111 $
b00010010011100000000 &
1'
b000100100111 +
#293
0'
#294
b01111110 #
b1111111111111111111111111111111111111111111111111111111101111110 $
b00010010011000000000 &
1'
b000100100110 +
#295
0'
#296
b01111101 #
b1111111111111111111111111111111111111111111111111111111101111101 $
b00010010010100000000 &
1'
b000100100101 +
#297
0'
#298
b01111100 #
b1111111111111111111111111111111111111111111111111111111101111100 $
b00010010010000000000 &
1'
b000100100100 +
#299
0'
#300
b01111011 #
b1111111111111111111111111111111111111111111111111111111101111011 $
b00010010001100000000 &
1'
b000100100011 +
#301
0'
#302
b01111010 #
b1111111111111111111111111111111111111111111111111111111101111010 $
b00010010001000000000 &
1'
b000100100010 +
#303
0'
#304
b01111001 #
b1111111111111111111111111111111111111111111111111111111101111001 $
b00010010000100000000 &
1'
b000100100001 +
#305
0'
#306
b01111000 #
b1111111111111111111111111111111111111111111111111111111101111000 $
b00010010000000000000 &
1'
b000100100000 +
#307
0'
#308
b01110111 #
b1111111111111111111111111111111111111111111111111111111101110111 $
b00010001100100000000 &
1'
b000100011001 +
#309
0'
#310
b01110110 #
b1111111111111111111111111111111111111111111111111111111101110110 $
b00010001100000000000 &
1'
b000100011000 +
#311
0'
#312
b01110101 #
b1111111111111111111111111111111111111111111111111111111101110101 $
b00010001011100000000 &
1'
b000100010111 +
#313
0'
#314
b01110100 #
b1111111111111111111111111111111111111111111111111111111101110100 $
b00010001011000000000 &
1'
b000100010110 +
#315
0'
#316
b01110011 #
b1111111111111111111111111111111111111111111111111111111101110011 $
b00010001010100000000 &
1'
b000100010101 +
#317
0'
#318
b01110010 #
b1111111111111111111111111111111111111111111111111111111101110010 $
b00010001010000000000 &
1'
b000100010100 +
#319
0'
#320
b01110001 #
b1111111111111111111111111111111111111111111111111111111101110001 $
b00010001001100000000 &
1'
b000100010011 +
#321
0'
#322
b01110000 #
b1111111111111111111111111111111111111111111111111111111101110000 $
b00010001001000000000 &
1'
b000100010010 +
#323
0'
#324
b01101111 #
b1111111111111111111111111111111111111111111111111111111101101111 $
b00010001000100000000 &
1'
b000100010001 +
#325
0'
#326
b01101110 #
b1111111111111111111111111111111111111111111111111111111101101110 $
b00010001000000000000 &
1'
b000100010000 +
#327
0'
#328
b01101101 #
b1111111111111111111111111111111111111111111111111111111101101101 $
b00010000100100000000 &
1'
b000100001001 +
#329
0'
#330
b01101100 #
b1111111111111111111111111111111111111111111111111111111101101100 $
b00010000100000000000 &
1'
b000100001000 +
#331
0'
#332
b01101011 #
b1111111111111111111111111111111111111111111111111111111101101011 $
b00010000011100000000 &
1'
b000100000111 +
#333
0'
#334
b01101010 #
b1111111111111111111111111111111111111111111111111111111101101010 $
b00010000011000000000 &
1'
b000100000110 +
#335
0'
#336
b01101001 #
b1111111111111111111111111111111111111111111111111111111101101001 $
b00010000010100000000 &
1'
b000100000101 +
#337
0'
#338
b01101000 #
b1111111111111111111111111111111111111111111111111111111101101000 $
b00010000010000000000 &
1'
b000100000100 +
#339
0'
#340
b01100111 #
b1111111111111111111111111111111111111111111111111111111101100111 $
b00010000001100000000 &
1'
b000100000011 +
#341
0'
#342
b01100110 #
b1111111111111111111111111111111111111111111111111111111101100110 $
b00010000001000000000 &
1'
b000100000010 +
#343
0'
#344
b01100101 #
b1111111111111111111111111111111111111111111111111111111101100101 $
b00010000000100000000 &
1'
b000100000001 +
#345
0'
#346
b01100100 #
b1111111111111111111111111111111111111111111111111111111101100100 $
b00010000000000000000 &
1'
b000100000000 +
#347
0'
#348
b01100011 #
b1111111111111111111111111111111111111111111111111111111101100011 $
b00001001100100000000 &
1'
b000010011001 +
#349
0'
#350
b01100010 #
b1111111111111111111111111111111111111111111111111111111101100010 $
b00001001100000000000 &
1'
b000010011000 +
#351
0'
#352
b01100001 #
b1111111111111111111111111111111111111111111111111111111101100001 $
b00001001011100000000 &
1'
b000010010111 +
#353
0'
#354
b01100000 #
b1111111111111111111111111111111111111111111111111111111101100000 $
b00001001011000000000 &
1'
b000010010110 +
#355
0'
#356
b01011111 #
b1111111111111111111111111111111111111111111111111111111101011111 $
b00001001010100000000 &
1'
b000010010101 +
#357
0'
#358
b01011110 #
b1111111111111111111111111111111111111111111111111111111101011110 $
b00001001010000000000 &
1'
b000010010100 +
#359
0'
#360
b01011101 #
b1111111111111111111111111111111111111111111111111111111101011101 $
b00001001001100000000 &
1'
b000010010011 +
#361
0'
#362
b01011100 #
b1111111111111111111111111111111111111111111111111111111101011100 $
b00001001001000000000 &
1'
b000010010010 +
#363
0'
#364
b01011011 #
b1111111111111111111111111111111111111111111111111111111101011011 $
b00001001000100000000 &
1'
b000010010001 +
#365
0'
#366
b01011010 #
b1111111111111111111111111111111111111111111111111111111101011010 $
b00001001000000000000 &
1'
b000010010000 +
#367
0'
#368
b01011001 #
b1111111111111111111111111111111111111111111111111111111101011001 $
b00001000100100000000 &
1'
b000010001001 +
#369
0'
#370
b01011000 #
b1111111111111111111111111111111111111111111111111111111101011000 $
b00001000100000000000 &
1'
b000010001000 +
#371
0'
#372
b01010111 #
b1111111111111111111111111111111111111111111111111111111101010111 $
b00001000011100000000 &
1'
b000010000111 +
#373
0'
#374
b01010110 #
b1111111111111111111111111111111111111111111111111111111101010110 $
b00001000011000000000 &
1'
b000010000110 +
#375
0'
#376
b01010101 #
b1111111111111111111111111111111111111111111111111111111101010101 $
b00001000010100000000 &
1'
b000010000101 +
#377
0'
#378
b01010100 #
b1111111111111111111111111111111111111111111111111111111101010100 $
b00001000010000000000 &
1'
b000010000100 +
#379
0'
#380
b01010011 #
b1111111111111111111111111111111111111111111111111111111101010011 $
b00001000001100000000 &
1'
b000010000011 +
#381
0'
#382
b01010010 #
b1111111111111111111111111111111111111111111111111111111101010010 $
b00001000001000000000 &
1'
b000010000010 +
#383
0'
#384
b01010001 #
b1111111111111111111111111111111111111111111111111111111101010001 $
b00001000000100000000 &
1'
b000010000001 +
#385
0'
#386
b01010000 #
b1111111111111111111111111111111111111111111111111111111101010000 $
b00001000000000000000 &
1'
b000010000000 +
#387
0'
#388
b01001111 #
b1111111111111111111111111111111111111111111111111111111101001111 $
b00000111100100000000 &
1'
b000001111001 +
#389
0'
#390
b01001110 #
b1111111111111111111111111111111111111111111111111111111101001110 $
b00000111100000000000 &
1'
b000001111000 +
#391
0'
#392
b01001101 #
b1111111111111111111111111111111111111111111111111111111101001101 $
b00000111011100000000 &
1'
b000001110111 +
#393
0'
#394
b01001100 #
b1111111111111111111111111111111111111111111111111111111101001100 $
b00000111011000000000 &
1'
b000001110110 +
#395
0'
#396
b01001011 #
b1111111111111111111111111111111111111111111111111111111101001011 $
b00000111010100000000 &
1'
b000001110101 +
#397
0'
#398
b01001010 #
b1111111111111111111111111111111111111111111111111111111101001010 $
b00000111010000000000 &
1'
b000001110100 +
#399
0'
#400
b01001001 #
b1111111111111111111111111111111111111111111111111111111101001001 $
b00000111001100000000 &
1'
b000001110011 +
#401
0'
#402
b01001000 #
b1111111111111111111111111111111111111111111111111111111101001000 $
b00000111001000000000 &
1'
b000001110010 +
#403
0'
#404
b01000111 #
b1111111111111111111111111111111111111111111111111111111101000111 $
b00000111000100000000 &
1'
b000001110001 +
#405
0'
#406
b01000110 #
b1111111111111111111111111111111111111111111111111111111101000110 $
b00000111000000000000 &
1'
b000001110000 +
#407
0'
#408
b01000101 #
b1111111111111111111111111111111111111111111111111111111101000101 $
b00000110100100000000 &
1'
b000001101001 +
#409
0'
#410
b01000100 #
b1111111111111111111111111111111111111111111111111111111101000100 $
b00000110100000000000 &
1'
b000001101000 +
#411
0'
#412
b01000011 #
b1111111111111111111111111111111111111111111111111111111101000011 $
b00000110011100000000 &
1'
b000001100111 +
#413
0'
#414
b01000010 #
b1111111111111111111111111111111111111111111111111111111101000010 $
b00000110011000000000 &
1'
b000001100110 +
#415
0'
#416
b01000001 #
b1111111111111111111111111111111111111111111111111111111101000001 $
b00000110010100000000 &
1'
b000001100101 +
#417
0'
#418
b01000000 #
b1111111111111111111111111111111111111111111111111111111101000000 $
b00000110010000000000 &
1'
b000001100100 +
#419
0'
#420
b00111111 #
b1111111111111111111111111111111111111111111111111111111100111111 $
b00000110001100000000 &
1'
b000001100011 +
#421
0'
#422
b00111110 #
b1111111111111111111111111111111111111111111111111111111100111110 $
b00000110001000000000 &
1'
b000001100010 +
#423
0'
#424
b00111101 #
b1111111111111111111111111111111111111111111111111111111100111101 $
b00000110000100000000 &
1'
b000001100001 +
#425
0'
#426
b00111100 #
b1111111111111111111111111111111111111111111111111111111100111100 $
b00000110000000000000 &
1'
b000001100000 +
#427
0'
#428
b00111011 #
b1111111111111111111111111111111111111111111111111111111100111011 $
b00000101100100000000 &
1'
b000001011001 +
#429
0'
#430
b00111010 #
b1111111111111111111111111111111111111111111111111111111100111010 $
b00000101100000000000 &
1'
b000001011000 +
#431
0'
#432
b00111001 #
b1111111111111111111111111111111111111111111111111111111100111001 $
b00000101011100000000 &
1'
b000001010111 +
#433
0'
#434
b00111000 #
b1111111111111111111111111111111111111111111111111111111100111000 $
b00000101011000000000 &
1'
b000001010110 +
#435
0'
#436
b00110111 #
b1111111111111111111111111111111111111111111111111111111100110111 $
b00000101010100000000 &
1'
b000001010101 +
#437
0'
#438
b00110110 #
b1111111111111111111111111111111111111111111111111111111100110110 $
b00000101010000000000 &
1'
b000001010100 +
#439
0'
#440
b00110101 #
b1111111111111111111111111111111111111111111111111111111100110101 $
b00000101001100000000 &
1'
b000001010011 +
#441
0'
#442
b00110100 #
b1111111111111111111111111111111111111111111111111111111100110100 $
b00000101001000000000 &
1'
b000001010010 +
#443
0'
#444
b00110011 #
b1111111111111111111111111111111111111111111111111111111100110011 $
b00000101000100000000 &
1'
b000001010001 +
#445
0'
#446
b00110010 #
b1111111111111111111111111111111111111111111111111111111100110010 $
b00000101000000000000 &
1'
b000001010000 +
#447
0'
#448
b00110001 #
b1111111111111111111111111111111111111111111111111111111100110001 $
b00000100100100000000 &
1'
b000001001001 +
#449
0'
#450
b00110000 #
b1111111111111111111111111111111111111111111111111111111100110000 $
b00000100100000000000 &
1'
b000001001000 +
#451
0'
#452
b00101111 #
b1111111111111111111111111111111111111111111111111111111100101111 $
b00000100011100000000 &
1'
b000001000111 +
#453
0'
